{
    'name': 'Chiang Kai-shek Memorial Hall',
    'cname': '中正紀念堂',
    loc: {
        type: "Point",
        coordinates: [25.034930, 121.521945]
    },
    'formatted_address': '',
    'photos': '',
    'google_url': '',
    'website': ''
}
